1 quartini/faccate,impianti 8colori,impianti 4color,impianti 4color (senza buco),"Spree::Order.number_of_systems_and_sheet(1, v, 1)"," Spree::Order.number_of_systems(1, v)"
4,2,2.0,2,"{:sheet=>0, :plants=>2}","[{:quarter=>4, :quantity=>1, :divisor=>1}]"
8,4,4.0,4,"{:sheet=>0, :plants=>4}","[{:quarter=>4, :quantity=>2, :divisor=>1}]"
12,6,6.0,6,"{:sheet=>0, :plants=>6}","[{:quarter=>4, :quantity=>3, :divisor=>1}]"
16,8,8.0,8,"{:sheet=>0, :plants=>8}","[{:quarter=>4, :quantity=>4, :divisor=>1}]"
20,10,10.0,10,"{:sheet=>0, :plants=>10}","[{:quarter=>4, :quantity=>5, :divisor=>1}]"
24,12,12.0,12,"{:sheet=>0, :plants=>12}","[{:quarter=>4, :quantity=>6, :divisor=>1}]"
28,14,14.0,14,"{:sheet=>0, :plants=>14}","[{:quarter=>4, :quantity=>7, :divisor=>1}]"
32,16,16.0,16,"{:sheet=>0, :plants=>16}","[{:quarter=>4, :quantity=>8, :divisor=>1}]"
2 quartini/faccate,impianti 8colori,impianti 4color,impianti 4color (senza buco),"Spree::Order.number_of_systems_and_sheet(2, v, 1)"," Spree::Order.number_of_systems(2, v)"
4,1,0.5,1,"{:sheet=>0, :plants=>1}","[{:quarter=>4, :quantity=>1, :divisor=>2}]"
8,2,2.0,2,"{:sheet=>0, :plants=>2}","[{:quarter=>8, :quantity=>1, :divisor=>1}]"
12,3,2.25,3,"{:sheet=>0, :plants=>3}","[{:quarter=>8, :quantity=>1, :divisor=>1}, {:quarter=>4, :quantity=>1, :divisor=>2}]"
16,4,4.0,4,"{:sheet=>0, :plants=>4}","[{:quarter=>8, :quantity=>2, :divisor=>1}]"
20,5,4.166666666666667,5,"{:sheet=>0, :plants=>5}","[{:quarter=>8, :quantity=>2, :divisor=>1}, {:quarter=>4, :quantity=>1, :divisor=>2}]"
24,6,6.0,6,"{:sheet=>0, :plants=>6}","[{:quarter=>8, :quantity=>3, :divisor=>1}]"
28,7,6.125,7,"{:sheet=>0, :plants=>7}","[{:quarter=>8, :quantity=>3, :divisor=>1}, {:quarter=>4, :quantity=>1, :divisor=>2}]"
32,8,8.0,8,"{:sheet=>0, :plants=>8}","[{:quarter=>8, :quantity=>4, :divisor=>1}]"
3 quartini/faccate,impianti 8colori,impianti 4color,impianti 4color (senza buco),"Spree::Order.number_of_systems_and_sheet(3, v, 1)"," Spree::Order.number_of_systems(3, v)"
4,1,0.3333333333333333,1,"{:sheet=>0, :plants=>1}","[{:quarter=>4, :quantity=>1, :divisor=>3}]"
8,2,0.6666666666666666,1,"{:sheet=>0, :plants=>2}","[{:quarter=>4, :quantity=>2, :divisor=>3}]"
12,2,2.0,2,"{:sheet=>0, :plants=>2}","[{:quarter=>12, :quantity=>1, :divisor=>0}]"
16,3,2.0,3,"{:sheet=>0, :plants=>3}","[{:quarter=>12, :quantity=>1, :divisor=>0}, {:quarter=>4, :quantity=>1, :divisor=>3}]"
20,4,2.2222222222222223,3,"{:sheet=>0, :plants=>4}","[{:quarter=>12, :quantity=>1, :divisor=>0}, {:quarter=>4, :quantity=>2, :divisor=>3}]"
24,4,4.0,4,"{:sheet=>0, :plants=>4}","[{:quarter=>12, :quantity=>2, :divisor=>0}]"
28,5,3.8888888888888893,5,"{:sheet=>0, :plants=>5}","[{:quarter=>12, :quantity=>2, :divisor=>0}, {:quarter=>4, :quantity=>1, :divisor=>3}]"
32,6,4.0,5,"{:sheet=>0, :plants=>6}","[{:quarter=>12, :quantity=>2, :divisor=>0}, {:quarter=>4, :quantity=>2, :divisor=>3}]"
4 quartini/faccate,impianti 8colori,impianti 4color,impianti 4color (senza buco),"Spree::Order.number_of_systems_and_sheet(4, v, 1)"," Spree::Order.number_of_systems(4, v)"
4,1,0.25,1,"{:sheet=>0, :plants=>1}","[{:quarter=>4, :quantity=>1, :divisor=>4}]"
8,1,0.5,1,"{:sheet=>0, :plants=>1}","[{:quarter=>8, :quantity=>1, :divisor=>2}]"
12,2,0.75,2,"{:sheet=>0, :plants=>2}","[{:quarter=>8, :quantity=>1, :divisor=>2}, {:quarter=>4, :quantity=>1, :divisor=>4}]"
16,2,2.0,2,"{:sheet=>0, :plants=>2}","[{:quarter=>16, :quantity=>1, :divisor=>1}]"
20,3,1.875,3,"{:sheet=>0, :plants=>3}","[{:quarter=>16, :quantity=>1, :divisor=>1}, {:quarter=>4, :quantity=>1, :divisor=>4}]"
24,3,2.25,3,"{:sheet=>0, :plants=>3}","[{:quarter=>16, :quantity=>1, :divisor=>1}, {:quarter=>8, :quantity=>1, :divisor=>2}]"
28,4,2.3333333333333335,4,"{:sheet=>0, :plants=>4}","[{:quarter=>16, :quantity=>1, :divisor=>1}, {:quarter=>8, :quantity=>1, :divisor=>2}, {:quarter=>4, :quantity=>1, :divisor=>4}]"
32,4,4.0,4,"{:sheet=>0, :plants=>4}","[{:quarter=>16, :quantity=>2, :divisor=>1}]"
6 quartini/faccate,impianti 8colori,impianti 4color,impianti 4color (senza buco),"Spree::Order.number_of_systems_and_sheet(6, v, 1)"," Spree::Order.number_of_systems(6, v)"
4,1,0.16666666666666666,1,"{:sheet=>0, :plants=>1}","[{:quarter=>4, :quantity=>1, :divisor=>6}]"
8,1,0.3333333333333333,1,"{:sheet=>0, :plants=>1}","[{:quarter=>8, :quantity=>1, :divisor=>3}]"
12,1,0.3333333333333333,1,"{:sheet=>0, :plants=>1}","[{:quarter=>12, :quantity=>1, :divisor=>3}]"
16,2,0.6666666666666666,1,"{:sheet=>0, :plants=>2}","[{:quarter=>8, :quantity=>2, :divisor=>3}]"
20,3,0.8333333333333333,2,"{:sheet=>0, :plants=>3}","[{:quarter=>8, :quantity=>2, :divisor=>3}, {:quarter=>4, :quantity=>1, :divisor=>6}]"
24,2,2.0,2,"{:sheet=>0, :plants=>2}","[{:quarter=>24, :quantity=>1, :divisor=>0}]"
28,3,1.75,3,"{:sheet=>0, :plants=>3}","[{:quarter=>24, :quantity=>1, :divisor=>0}, {:quarter=>4, :quantity=>1, :divisor=>6}]"
32,3,2.0,3,"{:sheet=>0, :plants=>3}","[{:quarter=>24, :quantity=>1, :divisor=>0}, {:quarter=>8, :quantity=>1, :divisor=>3}]"
8 quartini/faccate,impianti 8colori,impianti 4color,impianti 4color (senza buco),"Spree::Order.number_of_systems_and_sheet(8, v, 1)"," Spree::Order.number_of_systems(8, v)"
4,1,0.125,1,"{:sheet=>0, :plants=>1}","[{:quarter=>4, :quantity=>1, :divisor=>8}]"
8,1,0.25,1,"{:sheet=>0, :plants=>1}","[{:quarter=>8, :quantity=>1, :divisor=>4}]"
12,2,0.375,2,"{:sheet=>0, :plants=>2}","[{:quarter=>8, :quantity=>1, :divisor=>4}, {:quarter=>4, :quantity=>1, :divisor=>8}]"
16,1,0.5,1,"{:sheet=>0, :plants=>1}","[{:quarter=>16, :quantity=>1, :divisor=>2}]"
20,2,0.625,2,"{:sheet=>0, :plants=>2}","[{:quarter=>16, :quantity=>1, :divisor=>2}, {:quarter=>4, :quantity=>1, :divisor=>8}]"
24,2,0.75,2,"{:sheet=>0, :plants=>2}","[{:quarter=>16, :quantity=>1, :divisor=>2}, {:quarter=>8, :quantity=>1, :divisor=>4}]"
28,3,0.875,3,"{:sheet=>0, :plants=>3}","[{:quarter=>16, :quantity=>1, :divisor=>2}, {:quarter=>8, :quantity=>1, :divisor=>4}, {:quarter=>4, :quantity=>1, :divisor=>8}]"
32,2,2.0,2,"{:sheet=>0, :plants=>2}","[{:quarter=>32, :quantity=>1, :divisor=>1}]"
12 quartini/faccate,impianti 8colori,impianti 4color,impianti 4color (senza buco),"Spree::Order.number_of_systems_and_sheet(12, v, 1)"," Spree::Order.number_of_systems(12, v)"
4,1,0.16666666666666666,1,"{:sheet=>0, :plants=>1}","[{:quarter=>4, :quantity=>1, :divisor=>6}]"
8,1,0.16666666666666666,1,"{:sheet=>0, :plants=>1}","[{:quarter=>4, :quantity=>2, :divisor=>6}]"
12,1,0.16666666666666666,1,"{:sheet=>0, :plants=>1}","[{:quarter=>12, :quantity=>1, :divisor=>6}]"
16,1,0.3333333333333333,1,"{:sheet=>0, :plants=>1}","[{:quarter=>16, :quantity=>1, :divisor=>3}]"
20,2,0.5,2,"{:sheet=>0, :plants=>2}","[{:quarter=>16, :quantity=>1, :divisor=>3}, {:quarter=>4, :quantity=>1, :divisor=>6}]"
24,1,0.3333333333333333,1,"{:sheet=>0, :plants=>1}","[{:quarter=>24, :quantity=>1, :divisor=>3}]"
28,2,0.41666666666666663,2,"{:sheet=>0, :plants=>2}","[{:quarter=>16, :quantity=>1, :divisor=>3}, {:quarter=>4, :quantity=>3, :divisor=>6}]"
32,2,0.6666666666666666,1,"{:sheet=>0, :plants=>2}","[{:quarter=>16, :quantity=>2, :divisor=>3}]"
16 quartini/faccate,impianti 8colori,impianti 4color,impianti 4color (senza buco),"Spree::Order.number_of_systems_and_sheet(16, v, 1)"," Spree::Order.number_of_systems(16, v)"
4,1,0.0625,1,"{:sheet=>0, :plants=>1}","[{:quarter=>4, :quantity=>1, :divisor=>16}]"
8,1,0.125,1,"{:sheet=>0, :plants=>1}","[{:quarter=>8, :quantity=>1, :divisor=>8}]"
12,2,0.1875,2,"{:sheet=>0, :plants=>2}","[{:quarter=>8, :quantity=>1, :divisor=>8}, {:quarter=>4, :quantity=>1, :divisor=>16}]"
16,1,0.25,1,"{:sheet=>0, :plants=>1}","[{:quarter=>16, :quantity=>1, :divisor=>4}]"
20,2,0.3125,2,"{:sheet=>0, :plants=>2}","[{:quarter=>16, :quantity=>1, :divisor=>4}, {:quarter=>4, :quantity=>1, :divisor=>16}]"
24,2,0.375,2,"{:sheet=>0, :plants=>2}","[{:quarter=>16, :quantity=>1, :divisor=>4}, {:quarter=>8, :quantity=>1, :divisor=>8}]"
28,3,0.4375,3,"{:sheet=>0, :plants=>3}","[{:quarter=>16, :quantity=>1, :divisor=>4}, {:quarter=>8, :quantity=>1, :divisor=>8}, {:quarter=>4, :quantity=>1, :divisor=>16}]"
32,1,0.5,1,"{:sheet=>0, :plants=>1}","[{:quarter=>32, :quantity=>1, :divisor=>2}]"
24 quartini/faccate,impianti 8colori,impianti 4color,impianti 4color (senza buco),"Spree::Order.number_of_systems_and_sheet(24, v, 1)"," Spree::Order.number_of_systems(24, v)"
4,1,0.1111111111111111,1,"{:sheet=>0, :plants=>1}","[{:quarter=>4, :quantity=>1, :divisor=>9}]"
8,1,0.1111111111111111,1,"{:sheet=>0, :plants=>1}","[{:quarter=>4, :quantity=>2, :divisor=>9}]"
12,1,0.1111111111111111,1,"{:sheet=>0, :plants=>1}","[{:quarter=>12, :quantity=>1, :divisor=>9}]"
16,3,0.3611111111111111,3,"{:sheet=>0, :plants=>3}","[{:quarter=>10, :quantity=>1, :divisor=>6}, {:quarter=>4, :quantity=>1, :divisor=>9}, {:quarter=>2, :quantity=>1, :divisor=>12}]"
20,1,0.16666666666666666,1,"{:sheet=>0, :plants=>1}","[{:quarter=>10, :quantity=>2, :divisor=>6}]"
24,1,0.16666666666666666,1,"{:sheet=>0, :plants=>1}","[{:quarter=>24, :quantity=>1, :divisor=>6}]"
28,2,0.2777777777777778,2,"{:sheet=>0, :plants=>2}","[{:quarter=>10, :quantity=>2, :divisor=>6}, {:quarter=>4, :quantity=>2, :divisor=>9}]"
32,1,0.3333333333333333,1,"{:sheet=>0, :plants=>1}","[{:quarter=>32, :quantity=>1, :divisor=>3}]"
32 quartini/faccate,impianti 8colori,impianti 4color,impianti 4color (senza buco),"Spree::Order.number_of_systems_and_sheet(32, v, 1)"," Spree::Order.number_of_systems(32, v)"
4,1,0.03125,1,"{:sheet=>0, :plants=>1}","[{:quarter=>4, :quantity=>1, :divisor=>32}]"
8,1,0.0625,1,"{:sheet=>0, :plants=>1}","[{:quarter=>8, :quantity=>1, :divisor=>16}]"
12,2,0.09375,2,"{:sheet=>0, :plants=>2}","[{:quarter=>8, :quantity=>1, :divisor=>16}, {:quarter=>4, :quantity=>1, :divisor=>32}]"
16,1,0.125,1,"{:sheet=>0, :plants=>1}","[{:quarter=>16, :quantity=>1, :divisor=>8}]"
20,2,0.15625,2,"{:sheet=>0, :plants=>2}","[{:quarter=>16, :quantity=>1, :divisor=>8}, {:quarter=>4, :quantity=>1, :divisor=>32}]"
24,2,0.1875,2,"{:sheet=>0, :plants=>2}","[{:quarter=>16, :quantity=>1, :divisor=>8}, {:quarter=>8, :quantity=>1, :divisor=>16}]"
28,3,0.21875,3,"{:sheet=>0, :plants=>3}","[{:quarter=>16, :quantity=>1, :divisor=>8}, {:quarter=>8, :quantity=>1, :divisor=>16}, {:quarter=>4, :quantity=>1, :divisor=>32}]"
32,1,0.25,1,"{:sheet=>0, :plants=>1}","[{:quarter=>32, :quantity=>1, :divisor=>4}]"
